<Frame>: 0 3 farmhouse_obj
	<Transform>: 0.08309555 -10.64 -3.990466 0 0 0 1 1 1 0 0 0 1  
	<TransformMatrix>: 1 0 0 0 0 1 0 0 0 0 1 0 0.08309555 -10.64 -3.990466 1  
	<Children>: 1
		<Frame>: 1 0 polySurface73
			<Transform>: 0 0 0 0 0 0 1 1 1 0 0 0 1  
			<TransformMatrix>: 1 0 0 0 0 1 0 0 0 0 1 0 0 0 0 1  
			<Mesh>: 562 polySurface73
				<Bounds>: -0.08309555 10.72527 3.990466 12.13983 10.64149 25.18196
				<Positions>: 562 -9.584376 2.945292 13.54477 -9.584378 2.953252 5.581184 -9.584382 2.95729 1.540962 9.56216 2.952961 5.592434 9.56216 2.944732 13.51097 9.56216 2.940577 17.50874 9.56216 2.967356 -8.258186 9.56216 2.957179 1.534298 9.56216 2.952961 5.592434 2.023838 8.91544 -8.054992 1.992085 1.352654 -8.054985 -1.971237 1.352654 -8.054985 -1.97121 8.917807 -8.054984 -1.821583 8.907376 29.17242 -1.821583 9.398357 27.46017 -2.041729 9.398357 27.46017 -6.864059 9.398357 27.46017 -7.079507 9.398357 27.46017 -7.079507 8.907376 29.17242 -2.041729 8.907376 29.17242 -6.864059 8.907376 29.17242 -1.821583 8.440932 27.43903 -1.821583 8.613385 28.89788 -2.041729 8.613385 28.89788 -2.041729 8.440932 27.43903 -1.821583 8.613385 28.89788 -1.821583 8.440932 27.43903 -1.821583 9.244067 27.41593 -1.821583 8.753086 29.12818 -1.821583 8.907376 29.17242 -1.821583 9.398357 27.46017 -2.041729 8.753086 29.12818 -6.864059 8.753086 29.12818 -6.864059 9.244067 27.41593 -2.041729 9.244067 27.41593 -6.864058 8.613384 28.89789 -7.079506 8.613384 28.89789 -7.079507 8.440932 27.43903 -6.864059 8.440932 27.43903 -6.864059 8.440932 27.43903 -7.079507 8.440932 27.43903 -7.079507 9.244067 27.41593 -7.079507 9.398357 27.46017 -6.864059 9.244067 27.41593 -2.041729 9.244067 27.41593 -2.041729 8.440932 27.43903 -2.041729 8.613385 28.89788 -2.041729 8.753086 29.12818 -6.864059 8.753086 29.12818 -6.864058 8.613384 28.89789 -6.864059 8.440932 27.43903 -6.864059 9.244067 27.41593 -7.079507 9.244067 27.41593 -7.079507 8.440932 27.43903 -7.079506 8.613384 28.89789 -7.079507 8.753086 29.12818 -7.079507 8.907376 29.17242 -7.079507 9.398357 27.46017 -6.864059 9.244067 27.41593 -7.079507 9.398357 27.46017 -6.864059 9.398357 27.46017 -2.041729 9.244067 27.41593 -2.041729 9.398357 27.46017 -1.821583 9.398357 27.46017 -1.821583 8.440932 27.43903 -2.041729 8.440932 27.43903 -2.041729 9.244067 27.41593 -1.821583 9.398357 27.46017 -1.821583 9.244067 27.41593 -6.757504 8.950987 27.23482 -6.801266 0.083778 27.23483 -2.209645 0.083778 27.23482 -2.229405 8.950924 27.23482 1.837642 0.718216 -19.50315 1.833586 1.352654 -19.50315 9.56216 1.352654 -19.50315 1.841699 0.083778 -19.50315 9.56216 0.083778 -19.50315 -9.584381 1.352654 -8.258186 -9.584381 1.352654 -19.50315 -9.584381 0.083778 -19.50315 -9.584381 0.083778 -8.258186 -9.584381 0.083779 27.46893 -9.584381 0.083778 -8.258186 9.56216 0.083778 -8.258186 9.56216 0.083779 27.46893 -6.801266 0.083779 27.46893 -2.209644 0.083779 27.46893 -1.807727 0.083778 -19.50315 -9.584381 0.083778 -19.50315 -9.584381 1.352654 -19.50315 -1.807268 0.718216 -19.50315 -1.806809 1.352654 -19.50315 1.837642 0.718216 -21.19149 1.841699 0.083778 -21.19149 -1.807727 0.083778 -21.19149 -1.807268 0.718216 -21.19149 1.833586 1.352654 -20.34951 1.837642 0.718216 -20.34951 -1.807268 0.718216 -20.34951 -1.806809 1.352654 -20.34951 1.837642 0.718216 -19.50315 1.837642 0.718216 -21.19149 -1.807268 0.718216 -21.19149 -1.807268 0.718216 -19.50315 -1.807268 0.718216 -19.50315 -1.807268 0.718216 -21.19149 -1.807727 0.083778 -21.19149 -1.807727 0.083778 -19.50315 1.841699 0.083778 -19.50315 1.841699 0.083778 -21.19149 1.837642 0.718216 -21.19149 1.837642 0.718216 -19.50315 -1.806809 1.352654 -19.50315 -1.806809 1.352654 -20.34951 -1.807268 0.718216 -20.34951 -1.807268 0.718216 -19.50315 -1.807268 0.718216 -19.50315 -1.807268 0.718216 -20.34951 1.837642 0.718216 -20.34951 1.837642 0.718216 -19.50315 1.837642 0.718216 -19.50315 1.837642 0.718216 -20.34951 1.833586 1.352654 -20.34951 1.833586 1.352654 -19.50315 12.05673 10.6756 29.07674 12.05673 10.6756 -9.865997 0.28755 21.09895 -9.865997 -0.011112 21.36677 -9.865997 -0.011112 21.36677 29.07674 12.05673 10.6756 -9.865997 12.05673 10.6756 29.07674 11.69627 10.43732 29.07674 11.69706 10.43628 -9.865997 -0.011112 21.36677 29.07674 -0.011112 21.36677 -9.865997 -12.22292 10.71857 -9.865997 -12.22292 10.71857 29.07674 -0.304019 21.10411 29.07674 -11.85587 10.4273 -9.865997 -12.22292 10.71857 -9.865997 -0.011112 21.36677 -9.865997 0.005755 20.84445 -9.865997 0.28755 21.09895 -9.865997 11.69706 10.43628 -9.865997 12.05673 10.6756 -9.865997 0.004865 20.82557 29.07674 11.69627 10.43732 29.07674 12.05673 10.6756 29.07674 -0.011112 21.36677 29.07674 -0.304019 21.10411 29.07674 -11.85535 10.42681 29.07674 -12.22292 10.71857 29.07674 -11.85535 10.42681 29.07674 -12.22292 10.71857 29.07674 -12.22292 10.71857 -9.865997 -11.85587 10.4273 -9.865997 -11.85535 10.42681 29.07674 -11.85587 10.4273 -9.865997 0.005755 20.84445 -9.865997 0.004865 20.82557 29.07674 0.005755 20.84445 -9.865997 11.69706 10.43628 -9.865997 11.69627 10.43732 29.07674 0.004865 20.82557 29.07674 7.524743 1.178085 -15.3422 7.926116 1.178085 -15.40345 8.292524 1.178085 -15.1728 7.314556 1.178085 -14.99481 8.314565 1.178085 -14.69042 7.370952 1.178085 -14.5902 8.113598 1.178085 -14.46091 7.723187 1.178085 -14.38326 8.292524 11.53075 -15.1728 7.926116 11.53075 -15.40345 7.524743 11.53075 -15.3422 7.314556 11.53075 -14.99481 8.314565 11.53075 -14.69042 7.370952 11.53075 -14.5902 8.113598 11.53075 -14.46091 7.723187 11.53075 -14.38326 -9.735872 10.91997 -18.1918 -9.735872 11.31869 -18.24192 9.593304 11.31869 -18.24192 9.593304 10.91997 -18.1918 -9.735872 11.31869 -18.24192 -9.732642 12.78817 -8.232523 9.596533 12.78817 -8.232523 9.593304 11.31869 -18.24192 -9.732642 12.78817 -8.232523 -9.732642 12.38945 -8.182407 9.596533 12.38945 -8.182407 9.596533 12.78817 -8.232523 -9.732642 12.38945 -8.182407 -9.735872 10.91997 -18.1918 9.593304 10.91997 -18.1918 9.596533 12.38945 -8.182407 9.593304 10.91997 -18.1918 9.593304 11.31869 -18.24192 9.596533 12.78817 -8.232523 9.596533 12.38945 -8.182407 -9.732642 12.38945 -8.182407 -9.732642 12.78817 -8.232523 -9.735872 11.31869 -18.24192 -9.735872 10.91997 -18.1918 -7.979564 1.178085 -15.3422 -7.578191 1.178085 -15.40345 -7.211783 1.178085 -15.1728 -8.189751 1.178085 -14.99481 -7.189742 1.178085 -14.69042 -8.133354 1.178085 -14.5902 -7.390709 1.178085 -14.46091 -7.781119 1.178085 -14.38326 -7.211783 11.53075 -15.1728 -7.578191 11.53075 -15.40345 -7.979564 11.53075 -15.3422 -8.189751 11.53075 -14.99481 -7.189742 11.53075 -14.69042 -8.133354 11.53075 -14.5902 -7.390709 11.53075 -14.46091 -7.781119 11.53075 -14.38326 -2.619709 18.72784 -8.258188 -1.143524 18.72621 -8.258187 -1.119221 16.80527 -8.258187 -4.74416 16.82279 -8.258188 -1.143524 18.72621 -8.258188 -0.011108 21.06704 -8.258188 1.461399 18.72405 -8.258188 2.603913 18.72208 -8.258188 1.461399 18.72405 -8.258185 2.603912 18.72208 -8.258185 4.775525 16.77474 -8.258185 1.462166 16.79499 -8.258185 1.992084 1.352655 -8.258186 1.992084 1.352655 -8.054985 2.023838 8.91544 -8.054993 2.023838 8.91544 -8.258186 -1.971237 1.352654 -8.258186 -1.971237 1.352654 -8.054985 1.992085 1.352654 -8.054985 1.992085 1.352654 -8.258186 -1.97121 8.917807 -8.258186 -1.97121 8.917807 -8.054985 -1.971237 1.352654 -8.054985 -1.971237 1.352654 -8.258186 2.023838 8.915439 -8.258186 2.023838 8.915439 -8.054993 -1.97121 8.917806 -8.054985 -1.97121 8.917806 -8.258186 9.562161 1.352655 -8.258187 1.992085 1.352655 -8.258186 2.023839 8.91544 -8.258186 9.562161 8.910973 -8.258187 9.562161 2.967356 -8.258187 9.56216 12.48244 -8.258186 9.56216 8.910972 -8.258186 2.023838 8.91544 -8.258186 -1.97121 8.917807 -8.258186 -9.584381 12.48244 -8.258186 -9.584381 8.922317 -8.258186 -4.74416 16.82279 -8.258186 -1.119221 16.80527 -8.258186 1.462166 16.79499 -8.258186 4.775524 16.77474 -8.258186 -1.971211 8.917807 -8.258186 -1.971238 1.352655 -8.258186 -9.584381 2.967085 -8.258186 -9.584381 1.352654 -8.258186 -1.19159 18.76183 -8.239181 1.509437 18.75959 -8.239181 1.510232 16.75936 -8.239181 -1.16639 16.77002 -8.239181 -0.011108 21.06704 27.46893 -2.60751 18.73878 27.46893 -1.113865 18.74075 27.46893 1.464676 18.74414 27.46893 2.577679 18.74561 27.46893 9.56216 12.48244 27.46893 -9.584381 12.48244 27.46893 -9.584381 8.951014 27.46893 -6.757504 8.950987 27.46893 -2.229404 8.950924 27.46893 9.56216 8.950749 27.46893 -6.757504 8.950988 27.46893 -9.584381 8.951015 27.46893 -9.584381 2.931374 27.46893 -9.584381 0.083779 27.46893 -6.801266 0.083779 27.46893 9.562161 8.95075 27.46894 -2.229405 8.950925 27.46893 -2.209645 0.083779 27.46893 9.562161 0.08378 27.46894 9.562161 2.930227 27.46894 -6.757504 8.950987 27.46893 -6.757504 8.950987 27.23482 -2.229404 8.950925 27.23482 -2.229404 8.950925 27.46893 -2.229404 8.950925 27.46893 -2.229404 8.950925 27.23481 -2.209644 0.083779 27.23482 -2.209644 0.083779 27.46893 -6.801266 0.083779 27.46893 -6.801266 0.083778 27.23482 -6.757504 8.950988 27.23482 -6.757504 8.950988 27.46893 -1.113865 18.74075 27.46894 -2.607509 18.73878 27.46894 -4.593323 16.95805 27.46894 -1.128643 16.95592 27.46894 -4.593323 16.95805 27.46893 -9.584381 12.48244 27.46893 9.56216 12.48244 27.46893 -1.128643 16.95592 27.46893 1.47953 16.95432 27.46893 4.577393 16.95241 27.46893 2.577679 18.74561 27.46893 1.464676 18.74414 27.46893 1.47953 16.95432 27.46893 4.577393 16.95241 27.46893 -2.209645 0.083779 28.63566 -2.209645 0.630622 28.63566 -6.801266 0.630622 28.63566 -6.801266 0.083779 28.63566 -2.209645 0.083779 27.46893 -2.209645 0.083779 28.63566 -6.801266 0.083779 28.63566 -6.801266 0.083779 27.46893 -6.801265 0.083779 27.46893 -6.801265 0.083779 28.63566 -6.801265 0.630621 28.63566 -6.801265 0.630622 27.46893 -6.801266 0.630621 27.46893 -6.801266 0.630621 28.63566 -2.209645 0.630622 28.63566 -2.209645 0.630622 27.46893 -2.209645 0.630622 27.46893 -2.209645 0.630622 28.63566 -2.209645 0.083779 28.63566 -2.209645 0.083779 27.46893 1.519492 18.7719 27.42795 -1.139039 18.7684 27.42795 -1.154275 16.92821 27.42795 1.534808 16.92655 27.42795 -9.58438 8.943011 17.50713 -9.584376 2.941292 17.54625 -9.58438 2.931374 27.46893 -9.58438 8.951015 27.46893 -9.584382 12.48244 -8.258186 -9.584382 8.922316 -8.258186 -9.584382 8.930156 1.501781 -9.584379 8.933404 5.542252 -9.584383 8.939797 13.50586 -9.584383 8.943011 17.50713 -9.584384 8.951015 27.46893 -9.584384 12.48244 27.46893 -9.584383 1.352654 -8.258185 -9.584383 0.083778 -8.258185 -9.584379 0.083779 27.46893 -9.584379 2.931375 27.46893 -9.584376 2.941292 17.54625 -9.584382 2.95729 1.540962 -9.584376 2.945292 13.54477 -9.584383 2.967085 -8.258185 -9.58438 8.922316 -8.258185 -9.58438 2.967084 -8.258186 -9.584381 2.957291 1.540963 -9.584381 8.930156 1.501782 -9.584377 8.933404 5.542251 -9.584377 2.953252 5.581184 -9.584377 2.945292 13.54477 -9.584381 8.939797 13.50586 -9.584381 8.930156 1.501781 -9.264278 8.930156 1.501781 -9.264278 8.933404 5.542252 -9.584377 8.933404 5.542252 -9.584377 8.933404 5.542253 -9.264278 8.933404 5.542253 -9.264278 2.953253 5.581185 -9.584377 2.953252 5.581185 -9.584377 2.953252 5.581185 -9.264278 2.953253 5.581185 -9.264278 2.957291 1.540963 -9.584381 2.957291 1.540963 -9.584381 2.957291 1.540962 -9.264278 2.957291 1.540962 -9.264278 8.930156 1.501782 -9.584381 8.930156 1.501782 -9.58438 8.939797 13.50586 -9.264277 8.939797 13.50586 -9.264277 8.94301 17.50713 -9.58438 8.94301 17.50713 -9.584381 8.943011 17.50714 -9.264278 8.943011 17.50714 -9.264278 2.941292 17.54626 -9.584377 2.941292 17.54626 -9.584376 2.941292 17.54625 -9.264277 2.941292 17.54625 -9.264277 2.945292 13.54477 -9.584376 2.945292 13.54477 -9.584376 2.945292 13.54476 -9.264277 2.945292 13.54476 -9.264277 8.939797 13.50586 -9.58438 8.939797 13.50586 -9.495608 8.930156 1.501783 -9.495606 2.957292 1.540963 -9.495606 2.953253 5.581186 -9.495607 8.933403 5.542251 -9.495607 8.939797 13.50586 -9.495606 2.945292 13.54477 -9.495606 2.941293 17.54625 -9.495606 8.943011 17.50713 9.56216 8.92183 1.494385 9.56216 8.910972 -8.258185 9.56216 12.48244 -8.258185 9.56216 8.926348 5.552868 9.56216 8.935206 13.51081 9.56216 8.939658 17.50887 9.562159 8.950748 27.46893 9.562159 12.48243 27.46893 9.56216 0.083779 27.46893 9.56216 0.083778 -8.258186 9.56216 1.352654 -8.258186 9.56216 2.930226 27.46893 9.56216 2.940577 17.50874 9.56216 8.95075 27.46893 9.56216 8.93966 17.50887 9.56216 2.952961 5.592434 9.56216 2.967356 -8.258186 9.562162 8.921831 1.494385 9.562161 2.957179 1.534298 9.562162 2.967355 -8.258186 9.562162 8.910971 -8.258186 9.562161 8.935208 13.51081 9.562161 2.944732 13.51097 9.56216 2.952961 5.592433 9.56216 8.926349 5.552867 9.56216 8.93966 17.50886 9.205691 8.93966 17.50886 9.205691 8.935208 13.51081 9.56216 8.935207 13.51081 9.56216 8.935208 13.51081 9.205692 8.935208 13.51081 9.205692 2.944733 13.51097 9.56216 2.944733 13.51097 9.56216 2.944732 13.51097 9.205692 2.944732 13.51097 9.205692 2.940577 17.50874 9.56216 2.940577 17.50874 9.56216 2.940577 17.50874 9.205692 2.940577 17.50874 9.205692 8.93966 17.50887 9.56216 8.93966 17.50887 9.56216 8.926348 5.552868 9.205688 8.926349 5.552868 9.205688 8.921831 1.494385 9.56216 8.92183 1.494385 9.56216 8.921832 1.494385 9.205688 8.921832 1.494385 9.205692 2.957179 1.534298 9.56216 2.957179 1.534298 9.56216 2.957179 1.534298 9.205691 2.957178 1.534298 9.205691 2.95296 5.592434 9.56216 2.952961 5.592434 9.56216 2.952962 5.592435 9.205692 2.952961 5.592435 9.205688 8.92635 5.552869 9.56216 8.92635 5.552869 9.525482 8.93966 17.50887 9.525482 2.940578 17.50874 9.525482 2.944733 13.51097 9.525482 8.935208 13.51081 9.525481 8.926349 5.552868 9.525481 2.952961 5.592433 9.525482 2.957179 1.534299 9.525481 8.921831 1.494385 -6.864059 8.907376 29.17242 -7.079507 8.907376 29.17242 -7.079507 8.753086 29.12818 -6.864059 8.753086 29.12818 -2.041729 8.907376 29.17242 -6.864058 8.613384 28.89789 -7.079506 8.613384 28.89789 -2.041729 8.753086 29.12818 -1.821583 8.907376 29.17242 -1.821583 8.753086 29.12818 -1.821583 8.613385 28.89788 -2.041729 8.613385 28.89788 9.56216 1.352654 -8.258186 9.56216 1.352654 -19.50315 1.833586 1.352654 -19.50315 -1.806809 1.352654 -19.50315 -1.806809 1.352654 -20.34951 1.833586 1.352654 -20.34951 -9.584381 1.352654 -19.50315 -9.584381 1.352654 -8.258186 1.992085 1.352654 -8.258186 -1.971237 1.352654 -8.258186 9.56216 0.083778 -8.258186 9.56216 0.083778 -19.50315 9.56216 1.352654 -19.50315 9.56216 1.352654 -8.258186 9.56216 0.083778 -8.258186 9.56216 1.352654 -8.258186 -9.584381 1.352654 -8.258186 -9.584381 0.083778 -8.258186 -9.584381 0.083778 -8.258186 -9.584381 0.083778 -19.50315 -1.807727 0.083778 -19.50315 1.841699 0.083778 -19.50315 1.841699 0.083778 -21.19149 -1.807727 0.083778 -21.19149 9.56216 0.083778 -19.50315 9.56216 0.083778 -8.258186 8.314565 1.178085 -14.69042 8.314565 11.53075 -14.69042 8.113598 11.53075 -14.46091 8.113598 1.178085 -14.46091 7.723187 11.53075 -14.38326 7.723187 1.178085 -14.38326 7.370952 11.53075 -14.5902 7.370952 1.178085 -14.5902 7.370952 1.178085 -14.5902 7.370952 11.53075 -14.5902 7.314556 11.53075 -14.99481 7.314556 1.178085 -14.99481 7.524743 11.53075 -15.3422 7.524743 1.178085 -15.3422 7.524743 1.178085 -15.3422 7.524743 11.53075 -15.3422 7.926116 11.53075 -15.40345 7.926116 1.178085 -15.40345 8.292524 11.53075 -15.1728 8.292524 1.178085 -15.1728 8.292524 1.178085 -15.1728 8.292524 11.53075 -15.1728 8.314565 11.53075 -14.69042 8.314565 1.178085 -14.69042 -7.189742 1.178085 -14.69042 -7.189742 11.53075 -14.69042 -7.390709 11.53075 -14.46091 -7.390709 1.178085 -14.46091 -7.781119 11.53075 -14.38326 -7.781119 1.178085 -14.38326 -8.133354 11.53075 -14.5902 -8.133354 1.178085 -14.5902 -8.133354 1.178085 -14.5902 -8.133354 11.53075 -14.5902 -8.189751 11.53075 -14.99481 -8.189751 1.178085 -14.99481 -7.979564 11.53075 -15.3422 -7.979564 1.178085 -15.3422 -7.979564 1.178085 -15.3422 -7.979564 11.53075 -15.3422 -7.578191 11.53075 -15.40345 -7.578191 1.178085 -15.40345 -7.211783 11.53075 -15.1728 -7.211783 1.178085 -15.1728 -7.211783 1.178085 -15.1728 -7.211783 11.53075 -15.1728 -7.189742 11.53075 -14.69042 -7.189742 1.178085 -14.69042  
				<Colors>: 0  
				<TextureCoords0>: 562 0.359183 0.793288 0.411781 0.793182 0.438465 0.793128 0.158852 0.791974 0.106552 0.792084 0.080147 0.792139 0.250332 0.791782 0.185655 0.791918 0.158852 0.791974 0.335384 0.88347 0.334945 0.983161 0.28021 0.983045 0.28021 0.883322 0.122494 0.06898201 0.188456 0.06898201 0.188456 0.07746297 0.188456 0.263236 0.188456 0.271536 0.122494 0.271536 0.122494 0.07746297 0.122494 0.263236 0.231976 0.07842302 0.231976 0.022223 0.240457 0.022223 0.240457 0.07842302 0.333553 0.104579 0.34627 0.159723 0.315611 0.163973 0.327238 0.09634501 0.321144 0.09529698 0.309517 0.162926 0.255941 0.08576298 0.255941 0.271536 0.189979 0.271536 0.189979 0.08576298 0.216639 0.02198398 0.224939 0.02198398 0.224939 0.07818401 0.216639 0.07818401 0.107779 0.263236 0.107779 0.271536 0.07684 0.271536 0.070896 0.271536 0.07684 0.263236 0.294892 0.01539302 0.324841 0.02321398 0.305737 0.07648301 0.2985 0.08391899 0.27852 0.08386099 0.271588 0.07613999 0.254649 0.02214301 0.284888 0.01553702 0.297833 0.16455 0.266894 0.16366 0.273537 0.107459 0.278919 0.09858799 0.284863 0.096883 0.303777 0.162846 0.07684 0.263236 0.070896 0.271536 0.070896 0.263236 0.07684 0.07746297 0.070896 0.07746297 0.070896 0.06898201 0.107779 0.06898201 0.107779 0.07746297 0.07684 0.07746297 0.070896 0.06898201 0.07684 0.06898201 0.394524 0.883051 0.39505 0.98289 0.339876 0.98289 0.340113 0.883051 0.860075 0.149142 0.856066 0.149168 0.856066 0.100332 0.864084 0.149117 0.864084 0.100332 0.883179 0.07811201 0.883179 0.149168 0.875161 0.149168 0.875161 0.07811201 0.848662 0.04539102 0.848662 0.271149 0.727676 0.271149 0.727676 0.04539102 0.831076 0.04539102 0.802062 0.04539102 0.873632 0.100028 0.873632 0.149168 0.865614 0.149168 0.869623 0.100025 0.865614 0.100022 0.850528 0.126133 0.854537 0.126107 0.854537 0.149168 0.850528 0.149165 0.825914 0.02139002 0.829923 0.02136397 0.829923 0.04439598 0.825914 0.044393 0.83833 0.02136397 0.848998 0.02136397 0.848998 0.04439598 0.83833 0.04439598 0.824384 0.033728 0.824384 0.04439598 0.820375 0.04439598 0.820375 0.033728 0.814837 0.04439598 0.814837 0.033728 0.818846 0.033728 0.818846 0.04439598 0.813307 0.03904802 0.813307 0.04439598 0.809298 0.04439598 0.809298 0.03904802 0.8368 0.04439598 0.831452 0.04439598 0.831452 0.02136397 0.8368 0.02136397 0.80376 0.04439598 0.80376 0.03904802 0.807769 0.03904802 0.807769 0.04439598 0.239914 0.566431 0.056184 0.566557 0.05599 0.390723 0.055985 0.386209 0.239715 0.386083 0.056184 0.566557 0.239914 0.566431 0.239908 0.56987 0.056178 0.570012 0.279116 0.386607 0.462844 0.386469 0.462643 0.56466 0.278915 0.564799 0.279111 0.391012 0.432281 0.983479 0.430423 0.980224 0.492235 0.860583 0.492321 0.866436 0.493747 0.863577 0.551498 0.982769 0.553318 0.980077 0.646678 0.867402 0.587501 0.984221 0.585676 0.981551 0.646759 0.861325 0.648242 0.864269 0.706711 0.983962 0.708571 0.98068 0.278921 0.570398 0.278915 0.564799 0.462643 0.56466 0.462649 0.57025 0.641858 0.373469 0.641861 0.578165 0.579512 0.578165 0.579517 0.373469 0.579512 0.578165 0.518059 0.578165 0.518063 0.373469 0.579517 0.373469 0.637962 0.269377 0.629672 0.270642 0.622103 0.265878 0.642304 0.262202 0.621648 0.255915 0.641139 0.253844 0.625799 0.251174 0.633863 0.24957 0.644261 0.254334 0.651829 0.24957 0.660119 0.250835 0.664461 0.25801 0.643806 0.264298 0.663296 0.266368 0.647956 0.269038 0.65602 0.270642 0.932359 0.58289 0.928119 0.58289 0.928119 0.377338 0.932359 0.377338 0.812371 0.58289 0.705929 0.582856 0.705929 0.377304 0.812371 0.377338 0.926487 0.58289 0.922247 0.58289 0.922247 0.377338 0.926487 0.377338 0.920555 0.582856 0.814112 0.58289 0.814112 0.377338 0.920555 0.377304 0.9435 0.478478 0.947773 0.478558 0.947982 0.586142 0.94371 0.586061 0.944013 0.367673 0.948286 0.367592 0.948091 0.475176 0.943818 0.475257 0.506334 0.269673 0.498043 0.270938 0.490475 0.266174 0.510675 0.262497 0.49002 0.25621 0.50951 0.25414 0.494171 0.25147 0.502235 0.249866 0.512632 0.25463 0.5202 0.249866 0.528491 0.251131 0.532832 0.258306 0.512177 0.264593 0.531667 0.266663 0.516328 0.269334 0.524392 0.270938 0.666231 0.631871 0.649077 0.631889 0.648795 0.653569 0.690919 0.653371 0.649077 0.631889 0.635917 0.60547 0.618806 0.631914 0.605529 0.631936 0.618806 0.631914 0.605529 0.631936 0.580293 0.653914 0.618797 0.653685 0.612639 0.827968 0.612639 0.827968 0.61227 0.742614 0.61227 0.742614 0.658696 0.827968 0.658696 0.827968 0.612639 0.827968 0.612639 0.827968 0.658695 0.742587 0.658695 0.742587 0.658696 0.827968 0.658696 0.827968 0.61227 0.742614 0.61227 0.742614 0.658695 0.742587 0.658695 0.742587 0.524669 0.827968 0.612639 0.827968 0.61227 0.742614 0.524669 0.742664 0.524669 0.809744 0.524669 0.702357 0.524669 0.742664 0.61227 0.742614 0.658695 0.742587 0.747166 0.702357 0.747166 0.742536 0.690919 0.653371 0.648795 0.653569 0.618797 0.653685 0.580293 0.653914 0.658695 0.742587 0.658696 0.827968 0.747166 0.809747 0.747166 0.827968 0.649077 0.631889 0.618806 0.631914 0.618797 0.653685 0.648795 0.653569 0.867823 0.609389 0.897995 0.634077 0.880638 0.634056 0.850673 0.63402 0.837739 0.634005 0.756574 0.700417 0.979072 0.700417 0.979072 0.737862 0.946221 0.737863 0.893601 0.737863 0.756574 0.737865 0.946221 0.737863 0.979072 0.737862 0.979072 0.801692 0.979072 0.831887 0.946729 0.831887 0.756574 0.737865 0.893601 0.737863 0.893372 0.831887 0.756574 0.831887 0.756574 0.801704 0.946221 0.737863 0.946221 0.737863 0.893601 0.737863 0.893601 0.737863 0.893601 0.737863 0.893601 0.737863 0.893372 0.831887 0.893372 0.831887 0.946729 0.831887 0.946729 0.831887 0.946221 0.737863 0.946221 0.737863 0.880638 0.634056 0.897995 0.634077 0.921072 0.652959 0.880809 0.652982 0.921072 0.652959 0.979072 0.700417 0.756574 0.700417 0.880809 0.652982 0.8505 0.652999 0.814501 0.653019 0.837739 0.634005 0.850673 0.63402 0.8505 0.652999 0.814501 0.653019 0.893372 0.831887 0.893372 0.826088 0.946729 0.826088 0.946729 0.831887 0.893372 0.831887 0.893372 0.831887 0.946729 0.831887 0.946729 0.831887 0.946729 0.831887 0.946729 0.831887 0.946729 0.826088 0.946729 0.826088 0.953358 0.881571 0.953358 0.905615 0.857799 0.905615 0.857799 0.881571 0.893372 0.826088 0.893372 0.826088 0.893372 0.831887 0.893372 0.831887 0.850141 0.63402 0.880106 0.634056 0.880278 0.652982 0.849968 0.652999 0.333012 0.713184 0.332754 0.793342 0.267217 0.793474 0.267217 0.713078 0.503187 0.665913 0.503187 0.713461 0.438724 0.713356 0.412038 0.713313 0.35944 0.713227 0.333012 0.713184 0.267217 0.713078 0.267217 0.665913 0.503187 0.814559 0.503187 0.831506 0.267217 0.831506 0.267217 0.793474 0.332754 0.793342 0.438465 0.793128 0.359183 0.793288 0.503187 0.792997 0.503187 0.713461 0.503187 0.792997 0.438465 0.793128 0.438724 0.713356 0.412038 0.713313 0.411781 0.793182 0.359183 0.793288 0.35944 0.713227 0.438724 0.713356 0.438724 0.713356 0.412038 0.713313 0.412038 0.713313 0.412038 0.713313 0.412038 0.713313 0.411781 0.793182 0.411781 0.793182 0.411781 0.793182 0.411781 0.793182 0.438465 0.793128 0.438465 0.793128 0.438465 0.793128 0.438465 0.793128 0.438724 0.713356 0.438724 0.713356 0.35944 0.713227 0.35944 0.713227 0.333012 0.713184 0.333012 0.713184 0.333012 0.713184 0.333012 0.713184 0.332754 0.793342 0.332754 0.793342 0.332754 0.793342 0.332754 0.793342 0.359183 0.793288 0.359183 0.793288 0.359183 0.793288 0.359183 0.793288 0.35944 0.713227 0.35944 0.713227 0.438724 0.713356 0.438465 0.793128 0.411781 0.793182 0.412038 0.713313 0.35944 0.713227 0.359183 0.793288 0.332754 0.793342 0.333012 0.713184 0.185919 0.712255 0.250332 0.7124 0.250332 0.664701 0.159113 0.712195 0.106553 0.712077 0.080146 0.712017 0.014362 0.711869 0.014362 0.664701 0.014362 0.830294 0.250332 0.830294 0.250332 0.813347 0.014362 0.792277 0.080147 0.792139 0.014362 0.711869 0.080146 0.712017 0.158852 0.791974 0.250332 0.791782 0.185919 0.712255 0.185655 0.791918 0.250332 0.791782 0.250332 0.7124 0.106553 0.712077 0.106552 0.792084 0.158852 0.791974 0.159113 0.712195 0.080146 0.712017 0.080146 0.712017 0.106553 0.712077 0.106553 0.712077 0.106552 0.712077 0.106552 0.712077 0.106552 0.792084 0.106552 0.792084 0.106552 0.792084 0.106552 0.792084 0.080147 0.792139 0.080147 0.792139 0.080147 0.792139 0.080147 0.792139 0.080146 0.712017 0.080146 0.712017 0.159113 0.712195 0.159113 0.712195 0.185919 0.712255 0.185919 0.712255 0.185919 0.712255 0.185919 0.712255 0.185655 0.791918 0.185655 0.791918 0.185655 0.791918 0.185655 0.791918 0.158852 0.791974 0.158852 0.791974 0.158852 0.791974 0.158852 0.791974 0.159113 0.712195 0.159113 0.712195 0.080146 0.712017 0.080147 0.792139 0.106552 0.792084 0.106553 0.712077 0.159113 0.712195 0.158852 0.791974 0.185655 0.791918 0.185919 0.712255 0.120697 0.263236 0.120697 0.271536 0.114753 0.271536 0.114753 0.263236 0.120697 0.07746297 0.109372 0.263236 0.109372 0.271536 0.114753 0.07746297 0.120697 0.06898201 0.114753 0.06898201 0.109372 0.06898201 0.109372 0.07746297 0.85065 0.150163 0.921706 0.150163 0.921706 0.199 0.921706 0.222003 0.927054 0.222003 0.927054 0.199 0.921706 0.271149 0.85065 0.271149 0.85065 0.197998 0.85065 0.223042 0.884708 0.149168 0.884708 0.07811201 0.892726 0.07811201 0.892726 0.149168 0.928875 0.150163 0.936893 0.150163 0.936893 0.271149 0.928875 0.271149 0.975981 0.149168 0.904924 0.149168 0.904924 0.100028 0.904924 0.076967 0.894256 0.076967 0.894256 0.100028 0.904924 0.02818203 0.975981 0.02818203 0.555138 0.270642 0.555138 0.05680698 0.559289 0.05680698 0.559289 0.270642 0.567352 0.05680698 0.567352 0.270642 0.574628 0.05680698 0.574628 0.270642 0.576168 0.270642 0.576168 0.05680698 0.584525 0.05680698 0.584525 0.270642 0.5917 0.05680698 0.5917 0.270642 0.60913 0.05680698 0.60913 0.270642 0.60084 0.270642 0.60084 0.05680698 0.593271 0.270642 0.593271 0.05680698 0.610375 0.270642 0.610375 0.05680698 0.620339 0.05680698 0.620339 0.270642 0.423509 0.270938 0.423509 0.05710298 0.42766 0.05710298 0.42766 0.270938 0.435724 0.05710298 0.435724 0.270938 0.443 0.05710298 0.443 0.270938 0.444539 0.270938 0.444539 0.05710298 0.452896 0.05710298 0.452896 0.270938 0.460072 0.05710298 0.460072 0.270938 0.488774 0.05710298 0.488774 0.270938 0.480484 0.270938 0.480484 0.05710298 0.472916 0.270938 0.472916 0.05710298 0.461643 0.270938 0.461643 0.05710298 0.471606 0.05710298 0.471606 0.270938  
				<TextureCoords1>: 0  
				<Normals>: 562 -1 0 0 -1 0 0 -1 0 0 1 0 0 1 0 0 1 0 0 1 0 0 1 0 0 1 0 0 0 0 -1 0 0 -1 0 0 -1 0 0 -1 0 0.9612615 0.2756379 0 0.9612615 0.2756379 0 0.9612615 0.2756379 0 0.9612615 0.2756379 0 0.9612615 0.2756379 0 0.9612615 0.2756379 0 0.9612615 0.2756379 0 0.9612615 0.2756379 0 -0.9930854 0.117394 0 -0.9930854 0.117394 0 -0.9930854 0.117394 0 -0.9930854 0.117394 1 0 0 1 0 0 1 0 0 1 0 0 1 0 0 1 0 0 0 -0.9612618 -0.2756369 0 -0.9612618 -0.2756369 0 -0.9612618 -0.2756369 0 -0.9612618 -0.2756369 0 -0.9930854 0.117394 0 -0.9930854 0.117394 0 -0.9930854 0.117394 0 -0.9930854 0.117394 0 -0.00112 -0.9999994 0 -0.00112 -0.9999994 0 -0.00112 -0.9999994 0 -0.00112 -0.9999994 0 -0.00112 -0.9999994 -1 0 0 -1 0 0 -1 0 0 -1 0 0 1 0 0 1 0 0 1 0 0 1 0 0 -1 0 0 -1 0 0 -1 0 0 -1 0 0 -1 0 0 -1 0 0 0 0.275643 -0.9612601 0 0.275643 -0.9612601 0 0.275643 -0.9612601 0 0.275643 -0.9612601 0 0.275643 -0.9612601 0 0.275643 -0.9612601 0 -0.001116 -0.9999994 0 -0.001116 -0.9999994 0 -0.001116 -0.9999994 0 -0.001116 -0.9999994 0 -0.001116 -0.9999994 0 0 1 0 0 1 0 0 1 0 0 1 0 0 -1 0 0 -1 0 0 -1 0 0 -1 0 0 -1 -1 0 0 -1 0 0 -1 0 0 -1 0 0 0 -1 0 0 -1 0 0 -1 0 0 -1 0 0 -1 0 0 -1 0 0 0 -1 0 0 -1 0 0 -1 0 0 -1 0 0 -1 0 0 -1 0 0 -1 0 0 -1 0 0 -1 0 0 -1 0 0 -1 0 0 -1 0 0 -1 0 1 0 0 1 0 0 1 0 0 1 0 -0.9999998 0.0007229998 0 -0.9999998 0.0007229998 0 -0.9999998 0.0007229998 0 -0.9999998 0.0007229998 0 0.9999796 0.006392998 0 0.9999796 0.006392998 0 0.9999796 0.006392998 0 0.9999796 0.006392998 0 -0.9999998 0.0007229998 0 -0.9999998 0.0007229998 0 -0.9999998 0.0007229998 0 -0.9999998 0.0007229998 0 0 -1 0 0 -1 0 0 -1 0 0 -1 0 0.9999796 0.006393997 0 0.9999796 0.006393997 0 0.9999796 0.006393997 0 0.9999796 0.006393997 0 0.6631222 0.7485113 -3.100001E-05 0.6631222 0.7485113 -3.100001E-05 0.6631222 0.7485113 -3.100001E-05 0.6631222 0.7485113 -3.100001E-05 0.6631222 0.7485113 -3.100001E-05 0.5526971 -0.8333822 1.700001E-05 0.5526971 -0.8333822 1.700001E-05 0.5526971 -0.8333822 1.700001E-05 0.5526971 -0.8333822 1.700001E-05 -0.6572049 0.7537119 6.999999E-05 -0.6572049 0.7537119 6.999999E-05 -0.6572049 0.7537119 6.999999E-05 -0.6572049 0.7537119 6.999999E-05 -0.6572049 0.7537119 6.999999E-05 0 0 -1 0 0 -1 0 0 -1 0 0 -1 0 0 -1 0 0 -1 0 0 -1 0 0 1 0 0 1 0 0 1 0 0 1 0 0 1 0 0 1 0 0 1 -0.6216651 -0.7832832 0 -0.6216651 -0.7832832 0 -0.6216651 -0.7832832 0 -0.6216651 -0.7832832 0 0.6595679 -0.7516449 -0.000184 0.6595679 -0.7516449 -0.000184 0.6595679 -0.7516449 -0.000184 0.6595679 -0.7516449 -0.000184 -0.6645742 -0.7472222 -0.000186 -0.6645742 -0.7472222 -0.000186 -0.6645742 -0.7472222 -0.000186 -0.6645742 -0.7472222 -0.000186 0 -1 0 0 -1 0 0 -1 0 0 -1 0 0 -1 0 0 -1 0 0 -1 0 0 -1 0 0 1 0 0 1 0 0 1 0 0 1 0 0 1 0 0 1 0 0 1 0 0 1 0 0 -0.124712 -0.992193 0 -0.124712 -0.992193 0 -0.124712 -0.992193 0 -0.124712 -0.992193 0 0.9893945 -0.1452529 0 0.9893945 -0.1452529 0 0.9893945 -0.1452529 0 0.9893945 -0.1452529 0 0.124712 0.992193 0 0.124712 0.992193 0 0.124712 0.992193 0 0.124712 0.992193 0 -0.9893945 0.1452529 0 -0.9893945 0.1452529 0 -0.9893945 0.1452529 0 -0.9893945 0.1452529 1 -3.9E-05 -0.000317 1 -3.9E-05 -0.000317 1 -3.9E-05 -0.000317 1 -3.9E-05 -0.000317 -1 4.1E-05 0.000317 -1 4.1E-05 0.000317 -1 4.1E-05 0.000317 -1 4.1E-05 0.000317 0 -1 0 0 -1 0 0 -1 0 0 -1 0 0 -1 0 0 -1 0 0 -1 0 0 -1 0 0 1 0 0 1 0 0 1 0 0 1 0 0 1 0 0 1 0 0 1 0 0 1 0 0 0 -1 0 0 -1 0 0 -1 0 0 -1 0 0 -1 0 0 -1 0 0 -1 0 0 -1 0 0 -1 0 0 -1 0 0 -1 0 0 -1 -0.9999912 0.004199001 0 -0.9999912 0.004199001 0 -0.9999912 0.004199001 0 -0.9999912 0.004199001 0 0 1 0 0 1 0 0 1 0 0 1 0 1 0 0 1 0 0 1 0 0 1 0 0 -0.000592 -0.9999999 0 -0.000592 -0.9999999 0 -0.000592 -0.9999999 0 -0.000592 -0.9999999 0 0 0 -1 0 0 -1 0 0 -1 0 0 -1 0 0 -1 0 0 -1 0 0 -1 0 0 -1 0 0 -1 0 0 -1 0 0 -1 0 0 -1 0 0 -1 0 0 -1 0 0 -1 0 0 -1 0 0 -1 0 0 -1 0 0 -1 0 0 -1 0 0 -1 0 0 -1 0 0 -1 0 0 1 0 0 1 0 0 1 0 0 1 0 0 1 0 0 1 0 0 1 0 0 1 0 0 1 0 0 1 0 0 1 0 0 1 0 0 1 0 0 1 0 0 1 0 0 1 0 0 1 0 0 1 0 0 1 0 0 1 0 0 1 -1.4E-05 -1 0 -1.4E-05 -1 0 -1.4E-05 -1 0 -1.4E-05 -1 0 -0.9999975 -0.002228001 0 -0.9999975 -0.002228001 0 -0.9999975 -0.002228001 0 -0.9999975 -0.002228001 0 0.9999878 -0.004934999 0 0.9999878 -0.004934999 0 0.9999878 -0.004934999 0 0.9999878 -0.004934999 0 0 0 1 0 0 1 0 0 1 0 0 1 0 0 1 0 0 1 0 0 1 0 0 1 0 0 1 0 0 1 0 0 1 0 0 1 0 0 1 0 0 1 0 0 1 0 0 1 0 0 1 0 0 1 0 -1 0 0 -1 0 0 -1 0 0 -1 0 -1 0 0 -1 0 0 -1 0 0 -1 0 0 0 1 0 0 1 0 0 1 0 0 1 0 1 0 0 1 0 0 1 0 0 1 0 0 0 0 1 0 0 1 0 0 1 0 0 1 -1 0 0 -1 0 0 -1 0 0 -1 0 0 -1 0 0 -1 0 0 -1 0 0 -1 0 0 -1 0 0 -1 0 0 -1 0 0 -1 0 0 -1 0 0 -1 0 0 -1 0 0 -1 0 0 -1 0 0 -1 0 0 -1 0 0 -1 0 0 -1 0 0 -1 0 0 -1 0 0 -1 0 0 -1 0 0 -1 0 0 -1 0 0 -1 0 0 0 -0.9999998 0.0008039998 0 -0.9999998 0.0008039998 0 -0.9999998 0.0008039998 0 -0.9999998 0.0008039998 0 -0.006509998 -0.9999788 0 -0.006509998 -0.9999788 0 -0.006509998 -0.9999788 0 -0.006509998 -0.9999788 0 0.9999995 0.0009999996 0 0.9999995 0.0009999996 0 0.9999995 0.0009999996 0 0.9999995 0.0009999996 0 0.006560004 0.9999785 0 0.006560004 0.9999785 0 0.006560004 0.9999785 0 0.006560004 0.9999785 0 -0.9999998 0.0008029998 0 -0.9999998 0.0008029998 0 -0.9999998 0.0008029998 0 -0.9999998 0.0008029998 0 -0.006517998 -0.9999788 0 -0.006517998 -0.9999788 0 -0.006517998 -0.9999788 0 -0.006517998 -0.9999788 0 0.9999995 0.0009999996 0 0.9999995 0.0009999996 0 0.9999995 0.0009999996 0 0.9999995 0.0009999996 0 0.00649 0.999979 0 0.00649 0.999979 0 0.00649 0.999979 0 0.00649 0.999979 -1 0 0 -1 0 0 -1 0 0 -1 0 0 -1 0 0 -1 0 0 -1 0 0 -1 0 0 1 0 0 1 0 0 1 0 0 1 0 0 1 0 0 1 0 0 1 0 0 1 0 0 1 0 0 1 0 0 1 0 0 1 0 0 1 0 0 1 0 0 1 0 0 1 0 0 1 0 0 1 0 0 1 0 0 1 0 0 1 0 0 1 0 0 1 0 0 1 0 0 1 0 0 0 -0.9999994 0.001114 0 -0.9999994 0.001114 0 -0.9999994 0.001114 0 -0.9999994 0.001114 0 2.7E-05 1 0 2.7E-05 1 0 2.7E-05 1 0 2.7E-05 1 0 0.9999995 0.001039001 0 0.9999995 0.001039001 0 0.9999995 0.001039001 0 0.9999995 0.001039001 0 2.1E-05 -1 0 2.1E-05 -1 0 2.1E-05 -1 0 2.1E-05 -1 0 -0.9999994 0.001113 0 -0.9999994 0.001113 0 -0.9999994 0.001113 0 -0.9999994 0.001113 0 0.006690997 0.9999776 0 0.006690997 0.9999776 0 0.006690997 0.9999776 0 0.006690997 0.9999776 0 0.9999995 0.001039 0 0.9999995 0.001039 0 0.9999995 0.001039 0 0.9999995 0.001039 0 -0.006624001 -0.9999781 0 -0.006624001 -0.9999781 0 -0.006624001 -0.9999781 0 -0.006624001 -0.9999781 1 0 0 1 0 0 1 0 0 1 0 0 1 0 0 1 0 0 1 0 0 1 0 0 0 -0.275643 0.9612601 0 -0.275643 0.9612601 0 -0.6070861 0.7946361 0 -0.6070861 0.7946361 0 -0.275643 0.9612601 0 -0.8549835 0.5186553 0 -0.8549835 0.5186553 0 -0.6070911 0.7946322 0 -0.275643 0.9612601 0 -0.6070911 0.7946322 0 -0.8549898 0.5186448 0 -0.8549898 0.5186448 0 1 0 0 1 0 0 1 0 0 1 0 0 1 0 0 1 0 0 1 0 0 1 0 0 1 0 0 1 0 0.7071068 0 0.7071068 1 0 0 1 0 0 0.7071068 0 0.7071068 0.7071068 0 0.7071068 0.7071068 0 0.7071068 0 0 1 0 0 1 0 -1 0 0 -1 0 0 -1 0 0 -1 0 0 -1 0 0 -1 0 0 -1 0 0 -1 0 0.9438285 0 0.3304358 0.9438285 0 0.3304358 0.5003279 0 0.8658359 0.5003279 0 0.8658359 -0.166637 0 0.9860183 -0.166637 0 0.9860183 -0.8314686 0 0.5555717 -0.8314686 0 0.5555717 -0.8314686 0 0.5555717 -0.8314686 0 0.5555717 -0.9795021 0 -0.201434 -0.9795021 0 -0.201434 -0.5555692 0 -0.8314703 -0.5555692 0 -0.8314703 -0.5555692 0 -0.8314703 -0.5555692 0 -0.8314703 0.2037569 0 -0.9790215 0.2037569 0 -0.9790215 0.8641597 0 -0.5032178 0.8641597 0 -0.5032178 0.8641597 0 -0.5032178 0.8641597 0 -0.5032178 0.9438285 0 0.3304358 0.9438285 0 0.3304358 0.9438285 0 0.3304358 0.9438285 0 0.3304358 0.5003291 0 0.8658353 0.5003291 0 0.8658353 -0.166637 0 0.9860183 -0.166637 0 0.9860183 -0.8314691 0 0.5555711 -0.8314691 0 0.5555711 -0.8314691 0 0.5555711 -0.8314691 0 0.5555711 -0.9795021 0 -0.201434 -0.9795021 0 -0.201434 -0.5555692 0 -0.8314703 -0.5555692 0 -0.8314703 -0.5555692 0 -0.8314703 -0.5555692 0 -0.8314703 0.2037571 0 -0.9790214 0.2037571 0 -0.9790214 0.8641594 0 -0.5032182 0.8641594 0 -0.5032182 0.8641594 0 -0.5032182 0.8641594 0 -0.5032182 0.9438285 0 0.3304358 0.9438285 0 0.3304358  
				<Tangents>: 562 0 1 0 0 0.001035069 -0.9999995 0 1 0 0 0.001049661 -0.9999995 0 0.001049661 -0.9999995 0 0.001049661 -0.9999995 0 0.001064967 -0.9999994 0 0.001064967 -0.9999994 0 1 0 0.9999976 0.002218681 0 0.9999976 0.002220585 0 0.9999976 0.002219735 0 0.9999976 0.002217835 0 0 0.2756379 -0.9612615 0 0.2756379 -0.9612615 0 0.2756379 -0.9612615 -5.8157E-05 0.2756379 -0.9612616 -1.36232E-05 0.2756379 -0.9612615 0 0.2756379 -0.9612615 1 0 0 1 0 0 -1 0 0 -1 0 0 -1 0 0 -1 0 0 0 -0.9940684 -0.1087569 0 -0.9940671 -0.1087682 0 -0.9940597 -0.1088362 0 -0.9940705 -0.1087376 0 -0.9940704 -0.1087388 0 -0.9940525 -0.1089018 0 -0.2756369 0.9612618 0 -0.2756369 0.9612618 0 -0.2756369 0.9612618 0 -0.2756369 0.9612618 -1 0 0 -1 0 0 -1 0 0 -1 0 0 0 -0.9999994 0.001120017 0 -0.9999994 0.001120023 0 -0.9999994 0.001119818 0 -0.9999994 0.001119971 0 -0.9999994 0.001120023 0 -0.9744178 -0.224744 0 -0.9744161 -0.2247516 0 -0.9744306 -0.2246883 0 -0.9744341 -0.2246733 0 0.9826881 0.1852678 0 0.9826891 0.1852621 0 0.9826936 0.1852383 0 0.9826931 0.1852412 0 1 3.417395E-05 0 1 0 0 1 6.884742E-05 0 1 -3.144041E-05 0 1 -8.411923E-05 0 1 6.832248E-05 0 -0.9612601 -0.275643 0 -0.9612601 -0.275643 0 -0.9612601 -0.275643 0 -0.9612601 -0.275643 0 -0.9612601 -0.275643 0 -0.9612601 -0.275643 0 -0.9999994 0.001116015 0 -0.9999994 0.001116022 0 -0.9999994 0.001115986 0 -0.9999994 0.001115981 1 0 0 -1 0 0 -1 0 0 -1 0 0 -1 1.390043E-05 0 3.659586E-05 -1 0 -8.939004E-05 -1 0 0 -1 0 0.0001354206 -1 0 0 -1 0 0 1 0 0 1 0 0 1 0 0 1 0 -1 0 0 -1 0 0 -1 0 0 -1 0 0 1 0 0 1 0 0 1.800627E-05 -1 0 0 -1 0 0 -1 0 2.007207E-05 -1 0 2.007207E-05 -1 0 -8.744772E-05 -1 0 -0.0001023636 -1 0 1.917862E-05 -1 0 3.416214E-05 -1 0 -9.056156E-05 -1 0 -0.0001041926 -1 0 0 -1 0 2.042099E-05 -1 0 0 0 -1 0 0 -1 0 0 -1 0 0 -1 0.0007229997 0.9999998 0 0.0007229998 0.9999998 0 0.0007229997 0.9999998 0 0.0007229998 0.9999998 0 -0.006392998 0.9999796 0 -0.006392998 0.9999796 0 -0.006392998 0.9999796 0 -0.006392998 0.9999796 0 0.0007229998 0.9999998 0 0.0007229997 0.9999998 0 0.0007229998 0.9999998 0 0.0007229997 0.9999998 0 0 0 1 0 0 1 0 0 1 0 0 1 -0.006393997 0.9999796 0 -0.006393997 0.9999796 0 -0.006393997 0.9999796 0 -0.006393997 0.9999796 0 0.0002473698 -0.0001777347 1 0.0002370993 -0.0001686358 1 0.001376553 -0.001178102 0.9999983 0.001610943 -0.001385752 0.9999977 0.0002370664 -0.0001686067 1 -0.0003907965 -0.0002387766 0.9999999 -0.0003481986 -0.0002105257 1 -0.0003485014 -0.0002107265 1 -0.0003910994 -0.0002389774 0.9999999 -0.0002901671 -0.0001601398 -1 -0.0002888325 -0.0001589761 -1 -0.0002892798 -0.0001593661 -1 -0.0002906143 -0.0001605297 -1 -0.7537119 -0.657205 -5.358212E-05 0.9999975 -0.002252607 0 0.9999975 -0.002252352 0 0.9999975 -0.00223143 0 0.9999975 -0.002247762 0 0.9999976 -0.002189612 0 0.999997 -0.002439763 0 0.999997 -0.002436714 0 -0.999999 -0.001443964 0 -0.9999992 -0.001346148 0 -0.9999992 -0.00134607 0 -0.9999989 -0.001461792 0 -0.9999988 -0.001553668 0 -0.9999989 -0.001474552 0 -0.9999989 -0.001475703 0 0.0002349613 -0.0001852041 -1 0.0002349547 -0.0001851988 -1 0.0002358133 -0.0001858804 -1 0.00023582 -0.0001858856 -1 -0.7516449 -0.659568 0 -0.751645 -0.6595679 0 -0.751645 -0.659568 0 -0.7516449 -0.659568 0 -0.7472222 0.6645741 0 -0.7472222 0.6645743 0 -0.7472222 0.6645741 0 -0.7472222 0.6645742 0 -1 0 0 -1 0 0 -1 0 0 -1 0 -1.305679E-05 -1 0 -1.502656E-05 -1 0 -2.981171E-05 -1 0 -3.054683E-05 -1 0 0 -1 0 1.408956E-05 -1 0 0 -1 0 0 -1 0 1.269343E-05 -1 0 1.159842E-05 -1 0 1.031127E-05 -1 0 0 -1 0 0 0 -0.992193 0.124712 0 -0.992193 0.124712 0 -0.992193 0.124712 0 -0.992193 0.124712 0 -0.1452529 -0.9893945 0 -0.1452529 -0.9893945 0 -0.1452529 -0.9893945 0 -0.1452529 -0.9893945 0 0.992193 -0.124712 0 0.992193 -0.124712 0 0.992193 -0.124712 0 0.992193 -0.124712 0 0.1452529 0.9893945 0 0.1452529 0.9893945 0 0.1452529 0.9893945 0 0.1452529 0.9893945 0 0.9896848 -0.1432622 0 0.9896839 -0.143268 0 0.9896507 -0.1434976 0 0.9896515 -0.1434917 0 0.9896508 -0.1434968 0 0.9896508 -0.1434968 0 0.9896507 -0.1434976 0 0.9896507 -0.1434976 -1 0 -1.679444E-05 -1 0 0 -1 0 -2.220676E-05 -1 0 -1.237268E-05 -1 0 -1.675561E-05 -1 0 0 -1 0 0 -1 0 -1.355767E-05 -1 0 0 -1 0 0 -1 0 0 -1 0 0 -1 0 0 -1 0 0 -1 0 2.031659E-05 -1 0 2.51178E-05 -1 0 0 -1 2.995544E-05 0 -1 0 0 -1 0 0 -1 1.100818E-05 0 -1 0 0 -1 0 0 -1 1.666372E-05 0 -1 1.647278E-05 0 -1 0 0 -1 -1.158943E-05 0 -1 0 0 1 0 0 1 0 0 1 0 0 1 0 0 1 0 0 1 0 0 1 0 0 1 0 0 1 0 0 1 0 0 1 0 0 1 0 0 1 0 0 1 0 0 1 0 0 1 0 0 -1 0 0 -1 0 0 -1 0 0 -1 0 0 1 0 0 -1 0 0 -1 0 0 -1 0 0 -1 0 0 -1 0 0 -1 0 0 -1 0 0 -1 0 0 -1 0 0 -1 -1.168806E-05 0 -1 0 0 -1 0 0 -1 0 0 -1 0 0 -1 -2.217135E-05 0 -1 0 0 -1 0 0 -1 -1.266787E-05 0 -1 0 0 -1 1.133151E-05 0 -1 0 0 -1 -3.093874E-05 0 -1 -4.588616E-05 0 -1 0 0 -1 0 0 -1 0 0 -1 -2.175912E-05 0 -1 1.250449E-05 0 -1 0 0 -1 -2.048761E-05 0 -1 -2.402055E-05 0 -1 -3.564485E-05 0 -1 0 0 -1 0 0 -1 0 0 -1 0 0 -1 0 0 -1 0 0 1 0 0 1 0 0 1 0 0 1 0 0 1 0 0 1 0 0 1 0 0 1 0 0 1 0 0 1 0 0 1 0 0 1 0 0 1 0 0 -1 1.12816E-05 0 -1 0 0 -1 -1.132399E-05 0 -1 0 0 -1 0 0 -1 0 0 -1 0 0 -1 0 0 -1 0 0 -1 0 0 -1 -1.579724E-05 0 -1 -4.595816E-05 0 -1 -1.214907E-05 0 -1 0 0 -1 0 0 -1 0 0 -1 0 0 -1 0 0 1 0 0 1 0 0 1 0 0 1 0 0 1 0 0 1 0 0 1 0 0 1 0 0 -1 0 0 -1 0 0 -1 0 0 -1 0 0 1 0 0 1 0 0 1 0 0 1 0 0 -1 0 0 -1 0 0 -1 0 0 -1 0 0 0 0 -1 0 0 -1 0 0 -1 0 0 -1 0 0 -1 0 0 -1 0 0 -1 0 0 -1 0 0 -1 0 0 -1 0 0 -1 0 0 -1 0 0 -1 0 0 -1 0 0 -1 0 0 -1 0 0 -1 0 0 -1 0 0.0009909122 -0.9999995 0 0 -1 0 0 -1 0 0 -1 0 0 -1 0 0 -1 0 0 -1 0 0 -1 0 0 -1 0 0 -1 1 0 0 1 0 0 1 0 0 1 0 0 1 0 0 1 0 0 1 0 0 1 0 0 1 0 0 1 0 0 1 0 0 1 0 0 1 0 0 1 0 0 1 0 0 1 0 0 1 0 0 1 0 0 1 0 0 1 0 0 1 0 0 1 0 0 1 0 0 1 0 0 1 0 0 1 0 0 1 0 0 1 0 0 1 0 0 1 0 0 1 0 0 1 0 0 0 0 -1 0 0 -1 0 0 -1 0 0 -1 0 0 -1 0 0 -1 0 -1.079598E-05 -1 0 0 -1 0 0 -1 0 0 -1 0 0 -1 0 0 -1 0 0 -1 0 0 -1 0 0 -1 0 0 -1 0 0 -1 0 0 -1 0 0 -1 0 0 -1 0 0 -1 0 0 -1 0 0 -1 0 0 -1 0 0 -1 0 0 -1 0 0 -1 0 0 -1 0 0 -1 0 0 -1 0 0 -1 0 0 -1 0 0 -1 1 0 0 1 0 0 1 0 0 1 0 0 1 0 0 1 0 0 1 0 0 1 0 0 1 0 0 1 0 0 1 0 0 1 0 0 1 0 0 1 0 0 1 0 0 1 0 0 1 0 0 1 0 0 1 0 0 1 0 0 1 0 0 1 0 0 1 0 0 1 0 0 1 0 0 1 0 0 1 0 0 1 0 0 1 0 0 1 0 0 1 0 0 1 0 0 0 1.003386E-05 -1 0 0 -1 0 0 -1 0 0 -1 0 0 -1 0 0 -1 0 0 -1 0 0 -1 0 0.9612601 0.275643 0 0.9612601 0.275643 0 0.7946361 0.6070861 0 0.7946361 0.6070861 0 0.9612601 0.275643 0 0.5186553 0.8549835 0 0.5186552 0.8549835 0 0.7946323 0.607091 0 0.9612601 0.275643 0 0.7946321 0.6070912 0 0.5186449 0.8549898 0 0.5186448 0.8549898 0 0 -1 0 0 -1 1.02535E-05 0 -1 0 0 -1 0 0 -1 0 0 -1 0 0 -1 0 0 -1 1 0 0 1 0 0 0 1 0 0 1 0 0 1 0 0 1 0 0 1 0 0 1 0 0 1 0 0 1 0 0 0 1 0 0 1 0 0 1 0 0 1 0 0 1 0 0 1 0 0 1 0 0 1 -0.3304354 0 0.9438286 -0.3304354 0 0.9438286 -0.8658359 0 0.500328 -0.8658359 0 0.5003279 -0.9860183 0 -0.166637 -0.9860183 0 -0.166637 -0.5555714 0 -0.8314689 -0.5555714 0 -0.8314689 -0.555572 0 -0.8314684 -0.555572 0 -0.8314684 0.201434 0 -0.9795021 0.201434 0 -0.9795021 0.8314701 0 -0.5555695 0.8314701 0 -0.5555695 -0.8314705 0 0.5555689 -0.8314705 0 0.5555689 -0.9790215 0 -0.2037569 -0.9790215 0 -0.2037569 -0.5032175 0 -0.8641599 -0.5032175 0 -0.8641599 0.5032181 0 0.8641594 0.5032182 0 0.8641594 -0.3304362 0 0.9438283 -0.3304362 0 0.9438283 -0.3304354 0 0.9438286 -0.3304354 0 0.9438286 -0.8658353 0 0.5003292 -0.8658353 0 0.5003292 -0.9860183 0 -0.166637 -0.9860183 0 -0.166637 -0.5555712 0 -0.8314691 -0.5555711 0 -0.8314691 -0.555571 0 -0.8314691 -0.5555711 0 -0.8314691 0.201434 0 -0.9795021 0.201434 0 -0.9795021 0.8314701 0 -0.5555696 0.8314701 0 -0.5555695 -0.8314705 0 0.5555689 -0.8314705 0 0.5555689 -0.9790214 0 -0.2037571 -0.9790214 0 -0.2037571 -0.5032187 0 -0.8641592 -0.5032186 0 -0.8641592 0.5032178 0 0.8641597 0.5032178 0 0.8641597 -0.3304362 0 0.9438283 -0.3304362 0 0.9438283  
				<BiTangents>: 562 0 0 -1 0 -0.9999995 -0.001035069 0 0 -1 0 -0.9999994 -0.00104966 0 -0.9999994 -0.00104966 0 -0.9999994 -0.00104966 0 -0.9999994 -0.001064967 0 -0.9999994 -0.001064967 0 0 -1 -0.00221868 0.9999975 0 -0.002220585 0.9999975 0 -0.002219734 0.9999975 0 -0.002217835 0.9999975 0 1 0 0 1 0 0 1 0 0 1 1.603027E-05 -5.590409E-05 1 3.755069E-06 -1.309545E-05 1 0 0 0 -0.2756379 0.9612615 0 -0.2756379 0.9612615 0 0.117394 0.9930854 0 0.117394 0.9930854 0 0.117394 0.9930854 0 0.117394 0.9930854 0 -0.1087569 0.9940684 0 -0.1087682 0.9940671 0 -0.1088362 0.9940597 0 -0.1087376 0.9940705 0 -0.1087388 0.9940704 0 -0.1089018 0.9940525 1 0 0 1 0 0 1 0 0 1 0 0 0 0.117394 0.9930854 0 0.117394 0.9930854 0 0.117394 0.9930854 0 0.117394 0.9930854 1 0 0 1 0 0 1 0 0 1 0 0 1 0 0 0 0.224744 -0.9744179 0 0.2247516 -0.9744161 0 0.2246883 -0.9744307 0 0.2246733 -0.9744341 0 0.1852678 -0.9826881 0 0.1852621 -0.9826891 0 0.1852383 -0.9826936 0 0.1852412 -0.9826931 0 -3.417395E-05 1 0 0 1 0 -6.884742E-05 1 0 3.144041E-05 1 0 8.411923E-05 1 0 -6.832248E-05 1 1 0 0 1 0 0 1 0 0 1 0 0 1 0 0 1 0 0 1 0 0 1 0 0 1 0 0 1 0 0 0 0.9999994 -0.001116 0 1 0 0 1 0 0 1 0 1.390043E-05 1 0 1 3.659586E-05 0 1 -8.939004E-05 0 1 0 0 1 0.0001354206 0 1 0 0 0 0 1 0 0 1 0 0 1 0 0 1 0 0 1 0 0 1 0 0 1 0 0 1 0 0 -1 0 0 -1 1 1.800627E-05 0 1 0 0 1 0 0 1 2.007207E-05 0 1 2.007207E-05 0 1 -8.744772E-05 0 1 -0.0001023636 0 1 1.917862E-05 0 1 3.416214E-05 0 1 -9.056156E-05 0 1 -0.0001041926 0 1 0 0 1 2.042099E-05 0 1 0 0 1 0 0 1 0 0 1 0 0 0 0 1 0 0 1 0 0 1 0 0 1 0 0 -1 0 0 -1 0 0 -1 0 0 -1 0 0 1 0 0 1 0 0 1 0 0 1 1 0 0 1 0 0 1 0 0 1 0 0 0 0 -1 0 0 -1 0 0 -1 0 0 -1 -0.7485112 0.6631221 0.0003030189 -0.7485112 0.6631221 0.0002892975 -0.7485099 0.6631211 0.001811591 -0.7485095 0.6631207 0.002124732 -0.7485112 0.6631221 0.0002892536 0.8333821 0.5526971 0.000457654 0.8333821 0.5526971 0.0004065394 0.8333821 0.5526971 0.0004069027 0.8333821 0.5526971 0.0004580174 0.7537119 0.6572049 -0.0003239471 0.7537119 0.6572049 -0.0003221764 0.7537119 0.6572049 -0.0003227698 0.7537119 0.6572049 -0.0003245404 -5.618862E-06 8.797427E-05 -1 0.002252607 0.9999975 0 0.002252352 0.9999975 0 0.00223143 0.9999975 0 0.002247762 0.9999975 0 0.002189612 0.9999976 0 0.002439763 0.999997 0 0.002436714 0.999997 0 -0.001443964 0.9999989 0 -0.001346148 0.999999 0 -0.001346069 0.999999 0 -0.001461792 0.9999989 0 -0.001553668 0.9999988 0 -0.001474552 0.9999989 0 -0.001475703 0.9999989 0 -0.7832831 0.6216651 -0.0002991761 -0.7832831 0.6216651 -0.0002991677 -0.7832831 0.6216651 -0.0003002639 -0.7832831 0.6216651 -0.0003002724 0.0001213605 -0.0001383027 1 0.0001213605 -0.0001383027 1 0.0001213605 -0.0001383027 1 0.0001213605 -0.0001383027 1 -0.0001236109 -0.0001389834 1 -0.0001236109 -0.0001389834 1 -0.0001236109 -0.0001389834 1 -0.0001236109 -0.0001389834 1 0 0 1 0 0 1 0 0 1 -1.305679E-05 0 1 -1.502656E-05 0 1 -2.981171E-05 0 1 -3.054683E-05 0 1 0 0 1 -1.408956E-05 0 -1 0 0 -1 0 0 -1 -1.269343E-05 0 -1 -1.159842E-05 0 -1 -1.031127E-05 0 -1 0 0 -1 0 0 -1 1 0 0 1 0 0 1 0 0 1 0 0 1 0 0 1 0 0 1 0 0 1 0 0 1 0 0 1 0 0 1 0 0 1 0 0 1 0 0 1 0 0 1 0 0 1 0 0 -0.0003193173 -0.1432622 -0.9896847 -0.0003193172 -0.143268 -0.9896839 -0.0003193156 -0.1434976 -0.9896506 -0.0003193157 -0.1434917 -0.9896515 0.0003196027 0.1434968 0.9896507 0.0003196027 0.1434967 0.9896507 0.0003196026 0.1434975 0.9896506 0.0003196026 0.1434976 0.9896506 -1.679444E-05 0 1 0 0 1 -2.220676E-05 0 1 -1.237268E-05 0 1 -1.675561E-05 0 1 0 0 1 0 0 1 -1.355767E-05 0 1 0 0 -1 0 0 -1 0 0 -1 0 0 -1 0 0 -1 0 0 -1 -2.031659E-05 0 -1 -2.51178E-05 0 -1 0 1 0 2.995544E-05 1 0 0 1 0 0 1 0 1.100818E-05 1 0 0 1 0 0 1 0 1.666372E-05 1 0 1.647278E-05 1 0 0 1 0 -1.158943E-05 1 0 0 1 0 0 0 1 0 0 1 0 0 1 0 0 1 0 0 1 0 0 1 0 0 1 0 0 1 0 0 0 0 0 0 0 0 0 0 0 0 0 0 -1 0 0 -1 0 0 -1 0 0 -1 0 1 0 0 1 0 0 1 0 0 1 0 0 1 0 0 1 0 0 1 0 0 1 0 0 1 0 0 1 0 0 1 0 0 1 0 0 1 0 0 1 0 -1.168806E-05 1 0 0 1 0 0 1 0 0 1 0 0 1 0 -2.217135E-05 1 0 0 1 0 0 1 0 -1.266787E-05 1 0 0 1 0 1.133151E-05 1 0 0 1 0 -3.093874E-05 1 0 -4.588616E-05 1 0 0 1 0 0 1 0 0 1 0 -2.175912E-05 1 0 1.250449E-05 1 0 0 1 0 -2.048761E-05 1 0 -2.402055E-05 1 0 -3.564485E-05 1 0 0 1 0 0 1 0 0 1 0 0 1 0 0 1 0 0 1 0 0 -1 0 0 0 -1 0 0 -1 0 0 -1 0 0 -1 0 0 -1 0 0 -1 0 0 -1 0 0 -1 0 0 -1 0 0 -1 0 0 -1 0 0 -1 1.12816E-05 1 0 0 1 0 -1.132399E-05 1 0 0 1 0 0 1 0 0 1 0 0 1 0 0 1 0 0 1 0 0 1 0 -1.579724E-05 1 0 -4.595816E-05 1 0 -1.214907E-05 1 0 0 1 0 0 1 0 0 1 0 0 1 0 0 1 0 0 0 -1 0 0 -1 0 0 -1 0 0 -1 0 0 0 0 0 0 0 0 0 0 0 0 0 0 -1 0 0 -1 0 0 -1 0 0 -1 0 0 0 0 0 0 0 0 0 0 0 0 0 1 0 0 1 0 0 1 0 0 1 0 0 1 0 0 1 0 0 1 0 0 1 0 0 1 0 0 1 0 0 1 0 0 1 0 0 1 0 0 1 0 0 1 0 0 1 0 0 1 0 0 1 0 0 1 0 0 1 0 0 1 0 0 1 0 0 0.9999995 0.0009909122 0 1 0 0 1 0 0 1 0 0 1 0 0 1 0 0 1 0 0 1 0 0 1 0 0 1 0 0 -0.0008039997 -0.9999996 0 -0.0008039997 -0.9999996 0 -0.0008039997 -0.9999996 0 -0.0008039997 -0.9999996 0 0.9999788 -0.006509998 0 0.9999788 -0.006509998 0 0.9999788 -0.006509998 0 0.9999788 -0.006509998 0 -0.0009999996 0.9999995 0 -0.0009999996 0.9999995 0 -0.0009999996 0.9999995 0 -0.0009999996 0.9999995 0 -0.9999785 0.006560004 0 -0.9999785 0.006560004 0 -0.9999785 0.006560004 0 -0.9999785 0.006560004 0 -0.0008029997 -0.9999996 0 -0.0008029997 -0.9999996 0 -0.0008029997 -0.9999996 0 -0.0008029997 -0.9999996 0 0.9999788 -0.006517998 0 0.9999788 -0.006517998 0 0.9999788 -0.006517998 0 0.9999788 -0.006517998 0 -0.0009999996 0.9999995 0 -0.0009999996 0.9999995 0 -0.0009999996 0.9999995 0 -0.0009999996 0.9999995 0 -0.9999789 0.006489999 0 -0.9999789 0.006489999 0 -0.9999789 0.006489999 0 -0.9999789 0.006489999 0 1 0 0 1 0 0 1 0 0 1 0 0 1 0 0 1 0 0 1 -1.079598E-05 0 1 0 0 1 0 0 1 0 0 1 0 0 1 0 0 1 0 0 1 0 0 1 0 0 1 0 0 1 0 0 1 0 0 1 0 0 1 0 0 1 0 0 1 0 0 1 0 0 1 0 0 1 0 0 1 0 0 1 0 0 1 0 0 1 0 0 1 0 0 1 0 0 1 0 0 1 0 0 -0.001114 -0.9999994 0 -0.001114 -0.9999994 0 -0.001114 -0.9999994 0 -0.001114 -0.9999994 0 -1 2.7E-05 0 -1 2.7E-05 0 -1 2.7E-05 0 -1 2.7E-05 0 -0.001039 0.9999994 0 -0.001039 0.9999994 0 -0.001039 0.9999994 0 -0.001039 0.9999994 0 1 2.1E-05 0 1 2.1E-05 0 1 2.1E-05 0 1 2.1E-05 0 -0.001113 -0.9999994 0 -0.001113 -0.9999994 0 -0.001113 -0.9999994 0 -0.001113 -0.9999994 0 -0.9999776 0.006690997 0 -0.9999776 0.006690997 0 -0.9999776 0.006690997 0 -0.9999776 0.006690997 0 -0.001038999 0.9999994 0 -0.001038999 0.9999994 0 -0.001038999 0.9999994 0 -0.001038999 0.9999994 0 0.9999781 -0.006624001 0 0.9999781 -0.006624001 0 0.9999781 -0.006624001 0 0.9999781 -0.006624001 0 1 1.003386E-05 0 1 0 0 1 0 0 1 0 0 1 0 0 1 0 0 1 0 0 1 0 1 0 0 1 0 0 1 0 0 1 0 0 1 0 0 1 0 0 1 0 0 1 0 0 1 0 0 1 0 0 1 0 0 1 0 0 1 0 0 1 0 0 1 0 1.02535E-05 1 0 0 1 0 0 1 0 0 1 0 0 1 0 0 0 0 1 0 0 1 0.7071068 0 -0.7071068 0 0 -1 0 0 -1 0.7071068 0 -0.7071068 0.7071068 0 -0.7071068 0.7071068 0 -0.7071068 1 0 0 1 0 0 1 0 0 1 0 0 1 0 0 1 0 0 1 0 0 1 0 0 1 0 0 1 0 0 0 1 0 0 1 0 0 1 0 0 1 0 0 1 0 0 1 0 0 1 0 0 1 0 0 1 0 0 1 0 0 1 0 0 1 0 0 1 0 0 1 0 0 -1 0 0 -1 0 0 -1 0 0 -1 0 0 -1 0 0 -1 0 0 1 0 0 1 0 0 1 0 0 1 0 0 1 0 0 1 0 0 1 0 0 1 0 0 1 0 0 1 0 0 1 0 0 1 0 0 1 0 0 1 0 0 1 0 0 1 0 0 1 0 0 1 0 0 -1 0 0 -1 0 0 -1 0 0 -1 0 0 -1 0 0 -1 0 0 1 0 0 1 0 0 1 0 0 1 0  
				<SubMeshes>: 1
					<SubMesh>: 0 1002 0 1 2 3 4 5 6 7 8 9 10 11 9 11 12 13 14 15 15 16 13 16 17 13 17 18 13 18 19 13 18 20 19 21 22 23 21 23 24 25 26 27 27 28 25 27 29 28 27 30 29 31 32 33 31 33 34 35 36 37 35 37 38 39 40 41 41 42 39 42 43 39 44 45 46 44 46 47 48 49 50 48 50 51 52 53 54 54 55 52 55 56 52 56 57 52 58 59 60 60 61 58 60 62 61 62 63 61 64 65 66 66 67 64 67 68 64 69 70 71 69 71 72 73 74 75 75 76 73 75 77 76 78 79 80 78 80 81 82 83 84 84 85 82 85 86 82 85 87 86 88 89 90 90 91 88 90 92 91 93 94 95 93 95 96 97 98 99 97 99 100 101 102 103 101 103 104 105 106 107 105 107 108 109 110 111 109 111 112 113 114 115 113 115 116 117 118 119 117 119 120 121 122 123 121 123 124 125 126 127 127 128 125 128 129 125 130 131 132 130 132 133 134 135 136 136 137 134 137 138 134 139 140 141 141 142 139 141 143 142 143 144 142 143 145 144 146 147 148 146 148 149 149 150 146 150 151 146 150 152 151 153 154 155 153 155 156 157 158 159 157 159 160 161 162 163 161 163 164 165 166 167 167 168 165 167 169 168 169 170 168 169 171 170 171 172 170 173 174 175 175 176 173 176 177 173 176 178 177 178 179 177 178 180 179 181 182 183 181 183 184 185 186 187 185 187 188 189 190 191 189 191 192 193 194 195 193 195 196 197 198 199 197 199 200 201 202 203 201 203 204 205 206 207 207 208 205 207 209 208 209 210 208 209 211 210 211 212 210 213 214 215 215 216 213 216 217 213 216 218 217 218 219 217 218 220 219 221 222 223 221 223 224 225 221 226 226 227 225 226 228 227 229 230 231 229 231 232 233 234 235 233 235 236 237 238 239 237 239 240 241 242 243 241 243 244 245 246 247 245 247 248 249 250 251 251 252 249 252 253 249 254 255 256 254 256 257 258 254 257 257 259 258 254 258 260 260 261 254 261 262 254 262 263 254 259 264 265 266 259 265 265 267 266 268 269 270 268 270 271 272 273 274 274 275 272 275 276 272 277 278 279 279 280 277 280 281 277 281 282 277 283 284 285 285 286 283 286 287 283 288 289 290 290 291 288 291 292 288 293 294 295 293 295 296 297 298 299 297 299 300 301 302 303 301 303 304 305 306 307 305 307 308 309 310 311 311 312 309 311 313 312 311 314 313 315 316 317 315 317 318 319 320 321 319 321 322 323 324 325 323 325 326 327 328 329 327 329 330 331 332 333 331 333 334 335 336 337 335 337 338 339 340 341 339 341 342 343 344 345 343 345 346 347 348 349 349 350 347 350 351 347 351 352 347 352 353 347 353 354 347 355 356 357 357 358 355 358 359 355 359 360 355 359 361 360 360 362 355 363 364 365 363 365 366 367 368 369 367 369 370 371 372 373 371 373 374 375 376 377 375 377 378 379 380 381 379 381 382 383 384 385 383 385 386 387 388 389 387 389 390 391 392 393 391 393 394 395 396 397 395 397 398 399 400 401 399 401 402 403 404 405 403 405 406 407 408 409 407 409 410 411 412 413 413 414 411 413 415 414 413 416 415 413 417 416 413 418 417 419 420 421 421 422 419 421 423 422 424 422 423 424 423 425 421 426 423 421 427 426 428 429 430 428 430 431 432 433 434 432 434 435 436 437 438 436 438 439 440 441 442 440 442 443 444 445 446 444 446 447 448 449 450 448 450 451 452 453 454 452 454 455 456 457 458 456 458 459 460 461 462 460 462 463 464 465 466 464 466 467 468 469 470 468 470 471 472 473 474 472 474 475 476 477 478 478 479 476 479 480 476 478 481 479 478 482 481 479 483 480 483 484 480 483 485 484 483 486 485 483 487 486 488 489 490 490 491 488 490 492 491 490 493 492 491 494 488 494 495 488 495 496 488 495 497 496 498 499 500 498 500 501 502 503 504 502 504 505 506 507 508 508 509 506 508 510 509 508 511 510 509 512 506 512 513 506 514 515 516 514 516 517 517 516 518 517 518 519 519 518 520 519 520 521 522 523 524 522 524 525 525 524 526 525 526 527 528 529 530 528 530 531 531 530 532 531 532 533 534 535 536 534 536 537 538 539 540 538 540 541 541 540 542 541 542 543 543 542 544 543 544 545 546 547 548 546 548 549 549 548 550 549 550 551 552 553 554 552 554 555 555 554 556 555 556 557 558 559 560 558 560 561  
			</Mesh>
			<Materials>: 1
				<Material>: 0
					<AlbedoColor>: 1 1 1 1
					<EmissiveColor>: 0 0 0 1
					<Glossiness>: 0.5
					<Metallic>: 0
					<SpecularHighlight>: 1
					<GlossyReflection>: 1
					<AlbedoMap>: Farmhouse_Texture
					<MetallicMap>: Farmhouse_Texture_Bump_Map_
					<NormalMap>: Farmhouse_Texture_NomalMap
					<EmissionMap>: null
					<DetailAlbedoMap>: null
					<DetailNormalMap>: null
			</Materials>
			<Children>: 0
		</Frame>
</Frame>
